ply
format ascii 1.0
element vertex 10
property float x
property float y
property float z
property uchar red
property uchar green
property uchar blue
property float nx
property float ny
property float nz
end_header
1.887784 0.53859299 -1.817439 23 54 139 0.1238 0.025 -0.99199998
1.802472 0.493312 -1.829227 0 1 2 0.1238 0.025 -0.99199998
1.860947 0.56032401 -1.820242 23 59 234 0.1238 0.025 -0.99199998
1.8265361 0.63863099 -1.806807 255 255 255 -0.0308 -0.0044 -0.99949998
1.881238 0.71782601 -1.808843 254 253 252 -0.0308 -0.0044 -0.99949998
1.866944 0.649441 -1.8081011 1 4 59 -0.0308 -0.0044 -0.99949998
1.90747 0.40673 -1.786278 34 23 84 0.52029997 -0.1221 -0.8452
1.855412 0.43359801 -1.822202 13 24 13 0.52029997 -0.1221 -0.8452
1.887784 0.53859299 -1.817439 1 1 1 0.52029997 -0.1221 -0.8452
1.773631 0.462679 -1.8140351 1 0 13 -0.2852 -0.5898 -0.75559998
