ply
format ascii 1.0
element vertex 10
property float x
property float y
property float z
end_header
1.887784 0.53859299 -1.817439
1.802472 0.493312 -1.829227
1.860947 0.56032401 -1.820242
1.8265361 0.63863099 -1.806807
1.881238 0.71782601 -1.808843
1.866944 0.649441 -1.8081011
1.90747 0.40673 -1.786278
1.855412 0.43359801 -1.822202
1.887784 0.53859299 -1.817439
1.773631 0.462679 -1.8140351
